Measles outbreak hubs (2024–2026) vs historical persistence and MMR coverage
…
mmr_state_year |> filter(state %in% c("Texas","South Carolina")) |> arrange(state, school_year_start)

# A tibble: 30 × 4
   state          school_year_start mmr_pct n_rows
   <chr>                      <int>   <dbl>  <int>
 1 South Carolina              2009    87.2      1
 2 South Carolina              2011    94.5      1
 3 South Carolina              2012    90.9      1
 4 South Carolina              2013    96.8      1
 5 South Carolina              2014    96.5      1
 6 South Carolina              2015    96.5      1
 7 South Carolina              2016    96        1
 8 South Carolina              2017    96.3      1
 9 South Carolina              2018    94.2      1
10 South Carolina              2019    95        1
# ℹ 20 more rows
…
